Analiza sytuacji w Polsce w wybranych zagadnieniach
…
Widzimy, Å¼e liczba maÅ‚Å¼eÅ„stw oraz liczba rozwodÃ³w nie pokrywajÄ… siÄ™ ze sobÄ….

## # A tibble: 182 x 2
##    powiat                        `Liczba maÅ‚Å¼eÅ„stw`
##    <fct>                                      <int>
##  1 powiat ropczycko-sÄ™dziszowski                  6
##  2 powiat wÅ‚oszczowski                            6
##  3 powiat kartuski                                6
##  4 powiat nowosÄ…decki                             6
##  5 powiat limanowski                              6
##  6 powiat myÅ›lenicki                              6
##  7 powiat wolsztyÅ„ski                             6
##  8 powiat radomski                                5
##  9 powiat sierpecki                               5
## 10 powiat Å‚ukowski                                5
## # ... with 172 more rows

## # A tibble: 55 x 2
##    `powiat `           `Liczba rozwodÃ³w`
##    <fct>                           <int>
##  1 powiat legionowski                  3
##  2 powiat piaseczyÅ„ski                 2
##  3 powiat CheÅ‚m                        2
##  4 powiat Å¼yrardowski                  2
##  5 powiat Leszno                       2
##  6 powiat ÅomÅ¼a                        2
##  7 powiat WrocÅ‚aw                      2
##  8 powiat giÅ¼ycki                      2
##  9 powiat mrÄ…gowski                    2
## 10 powiat Sosnowiec                    2
## # ... with 45 more rows
…
