Rataje
…
W zbiorze znajduje si plik wtorne.rataje, w ktrym mamy informacje o kupnie/ sprzeday nieruchomoi wraz z cen z alokal i innymi przydatnymi rzeczami:

## # A tibble: 1,008 x 21
##    Cn_m2_l   rok Pwrzchn Kndygnc APTEKI_euclid BIBLIOTEKI_MUZE~ BUD_PRZEM_euclid
##      <dbl> <int>   <dbl>   <int>         <dbl>            <dbl>            <dbl>
##  1   5115.  2009    39.1       1          431.            1155.            410. 
##  2   7673.  2010    40.4       0         1369.             517.             90.1
##  3   7399.  2014    44.6       3         1369.             517.             90.1
##  4   6548.  2008    50.4       1         1369.             517.             90.1
##  5   6587.  2008    50.1       3         1369.             517.             90.1
##  6   6702.  2009    40.4       0         1369.             517.             90.1
##  7   7500   2011    40         5         1369.             517.             90.1
##  8   7639.  2009    44.6       3         1369.             517.             90.1
##  9   5720.  2013    50.7       0         1395.             544.             85.4
## 10   6420   2009    50.4       2         1395.             544.             85.4
## # ... with 998 more rows, and 14 more variables: CENTRA_HANDLOWE_euclid <dbl>,
## #   CMENTARZE_euclid <dbl>, DROGI_GLOWNE_euclid <dbl>, JEZIORA_euclid <dbl>,
## #   KOMINY_euclid <dbl>, KOSCIOLY_euclid <dbl>, LAS_euclid <dbl>,
## #   POLICJA_euclid <dbl>, PRZEDSZKOLA_euclid <dbl>, RONDA_euclid <dbl>,
## #   SZKOLA_PODSTAWOWA_euclid <dbl>, SZKOLA_PONADPODSTAWOWA_euclid <dbl>,
## #   WARTA_euclid <dbl>, geometry <POINT [m]>
…
