Zajecia2
…
Zadanie 2

Ktry kraj posiada najmniejsz liczb ludnoci i ile wynosi?

world %>% select(name_long, pop) %>% arrange(pop)

## Simple feature collection with 177 features and 2 fields
## geometry type:  MULTIPOLYGON
## dimension:      XY
## bbox:           xmin: -180 ymin: -90 xmax: 180 ymax: 83.64513
## CRS:            EPSG:4326
## # A tibble: 177 x 3
##    name_long         pop                                                    geom
##    <chr>           <dbl>                                      <MULTIPOLYGON []>
##  1 Greenland       56295 (((-46.76379 82.62796, -43.40644 83.22516, -39.89753 8~
##  2 Vanuatu        258850 (((167.2168 -15.89185, 167.8449 -16.46633, 167.5152 -1~
##  3 New Caledonia  268050 (((165.78 -21.08, 166.6 -21.70002, 167.12 -22.15999, 1~
##  4 Iceland        327386 (((-14.5087 66.45589, -14.73964 65.80875, -13.60973 65~
##  5 Belize         351694 (((-89.14308 17.80832, -89.15091 17.95547, -89.02986 1~
##  6 Bahamas        382169 (((-78.98 26.79, -78.51 26.87, -77.85 26.84, -77.82 26~
##  7 Brunei Daruss~ 411704 (((115.4507 5.44773, 115.4057 4.955228, 115.3475 4.316~
##  8 Suriname       547928 (((-54.52475 2.311849, -55.09759 2.523748, -55.56976 2~
##  9 Luxembourg     556319 (((6.043073 50.12805, 6.242751 49.90223, 6.18632 49.46~
## 10 Solomon Islan~ 575504 (((162.119 -10.48272, 162.3986 -10.82637, 161.7 -10.82~
## # ... with 167 more rows
…
