Analiza liczby rozwodów w poszczególnych powiatach.
…
##View(first_df)

# zmiana nazwy zeby mialo sens
first_df <-rename(first_df,liczba_rozwodow_w_stosunku_do_liczby_ludnosci = liczba_rozwodow)

dane_z_sf <-  powiaty %>% left_join(first_df, by = c ( 'JPT_KOD_JE' = 'Kod'))

Powiaty o największym procencie rozwodów względem liczby ludności.

Najwięcej rozwodów w 2018 roku odnotowano w powiecie legionowskim (3 rozwody na 1000 osób). Na drugim miejscu jest m. Leszno (2,6/1000 os.) oraz m. Jastrzębie-Zdrój (2,5/1000 os.) Najmniej rozwódów zanotowano w powiecie janowskim (0,6/1000 os.)

first_df %>%
  arrange(desc(liczba_rozwodow_w_stosunku_do_liczby_ludnosci))

## # A tibble: 397 x 5
##    Kod    Nazwa    liczba_rozwodow_w_s~ `przeciętne miesięczne ~ liczba_ludnosci
##    <chr>  <chr>                   <dbl>                    <dbl>           <dbl>
##  1 14080~ Powiat ~                0.303                     91.7          116775
##  2 30630~ Powiat ~                0.258                     84.5           63952
##  3 24670~ Powiat ~                0.255                    168             89128
##  4 14620~ Powiat ~                0.251                    118            120000
##  5 24650~ Powiat ~                0.237                    113.           120259
##  6 24610~ Powiat ~                0.235                     97.9          171259
##  7 02150~ Powiat ~                0.235                     91.3           76595
##  8 24630~ Powiat ~                0.228                     89.2          108434
##  9 14610~ Powiat ~                0.228                     99.9           52262
## 10 10630~ Powiat ~                0.226                     82             48178
## # ... with 387 more rows
…
